<?xml version="1.0" encoding="UTF-8"?>
<!DOCTYPE svg PUBLIC "-//W3C//DTD SVG 1.1//EN" "http://www.w3.org/Graphics/SVG/1.1/DTD/svg11.dtd">
<!-- Creator: CorelDRAW 2018 (64 Bit) -->
<svg xmlns="http://www.w3.org/2000/svg" xml:space="preserve" width="32px" height="21px" version="1.1" style="shape-rendering:geometricPrecision; text-rendering:geometricPrecision; image-rendering:optimizeQuality; fill-rule:evenodd; clip-rule:evenodd"
viewBox="0 0 1.001 0.654"
 xmlns:xlink="http://www.w3.org/1999/xlink">
 <defs>
  <style type="text/css">
   <![CDATA[
    .fil0 {fill:white;fill-rule:nonzero}
   ]]>
  </style>
 </defs>
 <g id="Camada_x0020_1">
  <metadata id="CorelCorpID_0Corel-Layer"/>
  <g id="_1894887730144">
   <path class="fil0" d="M0.663 0.23c-0.007,-0.014 -0.022,-0.023 -0.038,-0.023l-0.083 0 0 -0.165c0,-0.023 -0.019,-0.042 -0.042,-0.042 -0.023,0 -0.041,0.019 -0.041,0.042l0 0.165 -0.084 0c-0.016,0 -0.03,0.009 -0.037,0.023 -0.007,0.014 -0.006,0.031 0.004,0.044l0.125 0.167c0,0 0.001,0.001 0.002,0.001 0.003,0.003 0.006,0.006 0.009,0.008 0.002,0.001 0.003,0.002 0.005,0.003 0.005,0.003 0.011,0.004 0.017,0.004 0.007,0 0.012,-0.001 0.018,-0.004 0.001,-0.001 0.003,-0.002 0.004,-0.003 0.004,-0.002 0.007,-0.005 0.01,-0.008 0,0 0.001,-0.001 0.002,-0.001l0.125 -0.167c0.009,-0.013 0.011,-0.03 0.004,-0.044z"/>
   <path class="fil0" d="M0.959 0.278c-0.023,0 -0.042,0.019 -0.042,0.042l0 0.125c0,0.069 -0.056,0.125 -0.125,0.125l-0.584 0c-0.069,0 -0.125,-0.056 -0.125,-0.125l0 -0.125c0,-0.023 -0.018,-0.042 -0.041,-0.042 -0.023,0 -0.042,0.019 -0.042,0.042l0 0.125c0,0.115 0.094,0.209 0.208,0.209l0.584 0c0.115,0 0.209,-0.094 0.209,-0.209l0 -0.125c0,-0.023 -0.019,-0.042 -0.042,-0.042z"/>
  </g>
 </g>
</svg>
