<?xml version="1.0" encoding="UTF-8"?>
<!DOCTYPE svg PUBLIC "-//W3C//DTD SVG 1.1//EN" "http://www.w3.org/Graphics/SVG/1.1/DTD/svg11.dtd">
<!-- Creator: CorelDRAW 2018 (64 Bit) -->
<svg xmlns="http://www.w3.org/2000/svg" xml:space="preserve" width="50px" height="75px" version="1.1" style="shape-rendering:geometricPrecision; text-rendering:geometricPrecision; image-rendering:optimizeQuality; fill-rule:evenodd; clip-rule:evenodd"
viewBox="0 0 4.181 6.272"
 xmlns:xlink="http://www.w3.org/1999/xlink">
 <defs>
  <style type="text/css">
   <![CDATA[
    .fil0 {fill:#85807F}
   ]]>
  </style>
 </defs>
 <g id="Conteúdo_x0020_de_x0020_símbolos">
  <metadata id="CorelCorpID_0Corel-Layer"/>
  <path class="fil0" d="M1.394 2.369l1.393 0 0 -0.836c0,-0.192 -0.078,-0.366 -0.203,-0.492l-0.002 0c-0.126,-0.126 -0.3,-0.205 -0.491,-0.205 -0.193,0 -0.367,0.078 -0.492,0.204l-0.002 0.001c-0.125,0.126 -0.203,0.3 -0.203,0.492l0 0.836zm0.139 3.345l1.115 0 -0.202 -1.212c0.204,-0.121 0.341,-0.344 0.341,-0.599 0,-0.385 -0.312,-0.697 -0.696,-0.697 -0.385,0 -0.697,0.312 -0.697,0.697 0,0.255 0.137,0.478 0.341,0.599l-0.202 1.212zm2.091 -3.296c0.324,0.115 0.557,0.425 0.557,0.788l0 2.23c0,0.46 -0.376,0.836 -0.836,0.836l-2.509 0c-0.46,0 -0.836,-0.376 -0.836,-0.836l0 -2.23c0,-0.363 0.233,-0.673 0.557,-0.788l0 -0.885c0,-0.42 0.173,-0.803 0.451,-1.081l0.001 -0.002c0.278,-0.278 0.661,-0.45 1.082,-0.45 0.421,0 0.805,0.172 1.083,0.45l-0.001 0.001c0.278,0.278 0.451,0.662 0.451,1.082l0 0.885z"/>
 </g>
</svg>
