<?xml version="1.0" encoding="UTF-8"?>
<!DOCTYPE svg PUBLIC "-//W3C//DTD SVG 1.1//EN" "http://www.w3.org/Graphics/SVG/1.1/DTD/svg11.dtd">
<!-- Creator: CorelDRAW 2018 (64 Bit) -->
<svg xmlns="http://www.w3.org/2000/svg" xml:space="preserve" width="50px" height="41px" version="1.1" style="shape-rendering:geometricPrecision; text-rendering:geometricPrecision; image-rendering:optimizeQuality; fill-rule:evenodd; clip-rule:evenodd"
viewBox="0 0 1.874 1.555"
 xmlns:xlink="http://www.w3.org/1999/xlink">
 <defs>
  <style type="text/css">
   <![CDATA[
    .fil3 {fill:#FEFEFE;fill-rule:nonzero}
    .fil0 {fill:#ED3237;fill-rule:nonzero}
    .fil1 {fill:#8B2F31;fill-rule:nonzero}
    .fil2 {fill:#7B2D36;fill-rule:nonzero}
   ]]>
  </style>
 </defs>
 <g id="Conteúdo_x0020_de_x0020_símbolos">
  <metadata id="CorelCorpID_0Corel-Layer"/>
  <g id="_2193492241568">
   <path class="fil0" d="M1.813 0.205c-0.092,-0.111 -0.538,-0.205 -0.876,-0.205 -0.338,0 -0.784,0.094 -0.876,0.205 -0.069,0.083 -0.061,0.282 -0.061,0.282 0,0 0.107,0.013 0.218,0.013 0.111,0 0.218,-0.013 0.218,-0.013l0 -0.173 1.002 0 0 0.173c0,0 0.107,0.013 0.218,0.013 0.111,0 0.218,-0.013 0.218,-0.013 0,0 0.008,-0.199 -0.061,-0.282z"/>
   <polygon class="fil1" points="1.723,1.264 1.723,1.524 0.152,1.524 0.152,1.264 0.937,1.14 "/>
   <path class="fil0" d="M1.588 0.638l0.135 0.626 -1.571 0 0.134 -0.626 0.289 -0.056 0 -0.344c0,-0.012 0.009,-0.021 0.021,-0.021l0.082 0c0.012,0 0.022,0.009 0.022,0.021l0 0.177 0.474 0 0 -0.177c0,-0.012 0.01,-0.021 0.022,-0.021l0.082 0c0.012,0 0.021,0.009 0.021,0.021l0 0.344 0.289 0.056z"/>
   <path class="fil2" d="M1.721 1.555l-1.568 0c-0.017,0 -0.031,-0.014 -0.031,-0.031 0,-0.018 0.014,-0.032 0.031,-0.032l1.568 0c0.017,0 0.031,0.014 0.031,0.032 0,0.017 -0.014,0.031 -0.031,0.031z"/>
   <path class="fil3" d="M0.77 1.042l-0.045 0c-0.017,0 -0.031,-0.014 -0.031,-0.031 0,-0.018 0.014,-0.032 0.031,-0.032l0.045 0c0.017,0 0.031,0.014 0.031,0.032 0,0.017 -0.014,0.031 -0.031,0.031z"/>
   <path class="fil3" d="M1.149 1.042l-0.045 0c-0.017,0 -0.031,-0.014 -0.031,-0.031 0,-0.018 0.014,-0.032 0.031,-0.032l0.045 0c0.017,0 0.031,0.014 0.031,0.032 0,0.017 -0.014,0.031 -0.031,0.031z"/>
   <path class="fil3" d="M0.964 1.042l-0.045 0c-0.017,0 -0.031,-0.014 -0.031,-0.031 0,-0.018 0.014,-0.032 0.031,-0.032l0.045 0c0.017,0 0.031,0.014 0.031,0.032 0,0.017 -0.014,0.031 -0.031,0.031z"/>
   <path class="fil3" d="M0.77 0.871l-0.045 0c-0.017,0 -0.031,-0.014 -0.031,-0.031 0,-0.017 0.014,-0.031 0.031,-0.031l0.045 0c0.017,0 0.031,0.014 0.031,0.031 0,0.017 -0.014,0.031 -0.031,0.031z"/>
   <path class="fil3" d="M1.149 0.871l-0.045 0c-0.017,0 -0.031,-0.014 -0.031,-0.031 0,-0.017 0.014,-0.031 0.031,-0.031l0.045 0c0.017,0 0.031,0.014 0.031,0.031 0,0.017 -0.014,0.031 -0.031,0.031z"/>
   <path class="fil3" d="M0.964 0.871l-0.045 0c-0.017,0 -0.031,-0.014 -0.031,-0.031 0,-0.017 0.014,-0.031 0.031,-0.031l0.045 0c0.017,0 0.031,0.014 0.031,0.031 0,0.017 -0.014,0.031 -0.031,0.031z"/>
   <path class="fil3" d="M0.77 0.7l-0.045 0c-0.017,0 -0.031,-0.014 -0.031,-0.031 0,-0.017 0.014,-0.031 0.031,-0.031l0.045 0c0.017,0 0.031,0.014 0.031,0.031 0,0.017 -0.014,0.031 -0.031,0.031z"/>
   <path class="fil3" d="M1.149 0.7l-0.045 0c-0.017,0 -0.031,-0.014 -0.031,-0.031 0,-0.017 0.014,-0.031 0.031,-0.031l0.045 0c0.017,0 0.031,0.014 0.031,0.031 0,0.017 -0.014,0.031 -0.031,0.031z"/>
   <path class="fil3" d="M0.964 0.7l-0.045 0c-0.017,0 -0.031,-0.014 -0.031,-0.031 0,-0.017 0.014,-0.031 0.031,-0.031l0.045 0c0.017,0 0.031,0.014 0.031,0.031 0,0.017 -0.014,0.031 -0.031,0.031z"/>
  </g>
 </g>
</svg>
